…
From the above chart and visualization, we can see that the observed number of palindromes per interval generally seem to be close to around 10 intervals for each number of palindromes in an interval. Overall, the distribution seem to be closer together than expected, with the exception of the number of intervals with 3 palindromes which exceeds every other observed value by a fairly large amount. More formally, we can apply a goodness of fit test to our results in order to see if the random scatter model is true. If it was true, the test statistic should have a chi-squared distribution with 5 degrees of freedom (7 categories - 1 parameter - 1 = 5). The observed test statistic was calculated to be around 6.662. The probability of getting a test statistic at least as large as the observed statistic is 0.247. As a result, we can conclude that the Poisson fits the data reasonably well, although there are likely deviations such as unusual clusters of palindromes.

Therefore, it is natural for us to investigate whether there are clusters present by looking at the spacing between palindromes, with the results outlined in the table and plot below. If the palindromes have a Poisson distribution, the spacing should have an exponential distribution with parameter lambda = Number of Palindromes/Number of Base Pairs = 0.00129.

    ## # A tibble: 32 x 3
    ##    interval count expected_count
    ##    <fct>    <int>          <dbl>
    ##  1 0           55           35.8
    ##  2 100         29           31.5
    ##  3 200         28           27.7
    ##  4 300         15           24.3
    ##  5 400         19           21.4
    ##  6 500         17           18.8
    ##  7 600         12           16.5
    ##  8 700          8           14.5
    ##  9 800          9           12.8
    ## 10 900         10           11.2
    ## # ... with 22 more rows
…
From the plot, we see that the data generally looks like it follows an exponential distribution as expected, but it seems like there are a high number of consecutive palindromes which are very close together, possibly signifying a cluster. However, in order to determine this we need to look at the sum of the intervals, or the distance between palindromes which are 2 or 3 apart.

We first look at the distance between palindromes which are two apart (Sum of 2 intervals). We expect the number of occurrences of each spacing length to have Gamma(2,lambda=Number of Palindromes/Number of Intervals = 3.844) distribution. The following table and plot contains the results of our analysis for the distance between palindromes which are two apart, with columns for the expected and observed number of occurrences.

    ## # A tibble: 49 x 3
    ##    interval count expected_count
    ##    <fct>    <int>          <dbl>
    ##  1 0           12           2.26
    ##  2 100         16           6.05
    ##  3 200         10           8.89
    ##  4 300         17          11.0 
    ##  5 400         13          12.4 
    ##  6 500          9          13.3 
    ##  7 600         12          13.8 
    ##  8 700         10          14.0 
    ##  9 800          7          14.0 
    ## 10 900          4          13.7 
    ## # ... with 39 more rows
…
As seen from the plot when comparing the red bars (observed count, or number of occurrences of each spacing) with the blue bars (expected number of occurrences of each spacing if the data follows the Gamma distribution), the distribution does not seem to closely follow the Gamma(2,3.844) distribution. In particular, there seems to be a much higher than expected number of intervals of very low spacing length, i.e., below 500. There are also a much higher than expected number of intervals of extremely high spacing length (over 4,000). This illustrates there the palindromes appear to be bunched together in the DNA sequence, with some intervals that are very short or very long.

This is also seen when we look at the distance between palindromes which are three apart (sum of 3 intervals), which we would expect to have Gamma(3,lambda=Number of Palindromes/Number of Intervals = 3.844) distribution. The following table and plot contains the results of our analysis for the distance between palindromes which are three apart, with columns for the expected and observed number of occurrences.

    ## # A tibble: 61 x 3
    ##    interval count expected_count
    ##    <fct>    <int>          <dbl>
    ##  1 0            1         0.0963
    ##  2 100          7         0.604 
    ##  3 200          3         1.45  
    ##  4 300          5         2.48  
    ##  5 400          6         3.60  
    ##  6 500          4         4.73  
    ##  7 600          8         5.81  
    ##  8 700          7         6.79  
    ##  9 800          7         7.67  
    ## 10 900          6         8.42  
    ## # ... with 51 more rows
…
